…
```r
boston.nest$data[[1]]
```

```
## # A tibble: 506 x 2
##       crim value
##      <dbl> <dbl>
##  1 0.00632  18.0
##  2 0.02731   0.0
##  3 0.02729   0.0
##  4 0.03237   0.0
##  5 0.06905   0.0
##  6 0.02985   0.0
##  7 0.08829  12.5
##  8 0.14455  12.5
##  9 0.21124  12.5
## 10 0.17004  12.5
## # ... with 496 more rows
```
…
